{
    "DBType": "sqlite3",
    "DBPath": "./",
    "DBFileName": "sdict.db",

    "HostIP": "0.0.0.0",
    "HostPort": "8080",

    "StaticPath": "./static/",

    "EtcdIP": "192.168.59.201",

    "RecordTypes": ["basic", "expression", "verb", "noun", "adj", "adverb", "sub"]
}    

